@startuml

title __DAO's Class Diagram__\n

  namespace Dao {
    class Dao.ClientDao {
        + ClientDao()
        + deleteClient()
        + generatePdf()
        + insertClient()
        + report()
        - addRows()
        - addTableHeader()
    }
  }
  

  namespace Dao {
    abstract class Dao.GenericDao {
        # LOGGER : Logger
        - type : Class<T>
        + delete()
        + insert()
        # GenericDao()
        {static} - createDeletePreparedStatement()
        {static} - createDeleteStatementSql()
        {static} - createInsertStatementSql()
    }
  }
  

  namespace Dao {
    class Dao.OrderDaoClass {
        + OrderDaoClass()
        + generatePdf()
        + insertOrder()
        - addRows()
        - addTableHeader()
    }
  }
  

  namespace Dao {
    class Dao.OrderDetailsDao {
        + OrderDetailsDao()
        + generatePdf()
        + insertOrderDetails()
        + report()
        - addRows()
        - addTableHeader()
    }
  }
  

  namespace Dao {
    class Dao.ProductDao {
        + ProductDao()
        + deleteProduct()
        + generatePdf()
        + getprice()
        + insertProduct()
        + report()
        + update()
        + verifQuantity()
        - addRows()
        - addTableHeader()
    }
  }
  

  namespace Dao {
    interface Dao.Reflection {
        {abstract} + delete()
        {abstract} + insert()
    }
  }
  

  Dao.ClientDao -up-|> Dao.GenericDao
  Dao.GenericDao .up.|> Dao.Reflection
  Dao.OrderDaoClass -up-|> Dao.GenericDao
  Dao.OrderDetailsDao -up-|> Dao.GenericDao
  Dao.ProductDao -up-|> Dao.GenericDao


right footer


PlantUML diagram generated by SketchIt! (https://bitbucket.org/pmesmeur/sketch.it)
For more information about this tool, please contact philippe.mesmeur@gmail.com
endfooter

@enduml
